<svg width="1512" height="982" viewBox="0 0 1512 982" fill="none" xmlns="http://www.w3.org/2000/svg">
<rect width="1512" height="982" fill="white"/>
<path d="M1512 0H0V982H1512V0Z" fill="white"/>
<path d="M552.172 810.018C680.781 810.018 785.04 767.712 785.04 715.523C785.04 663.335 680.781 621.029 552.172 621.029C423.563 621.029 319.304 663.335 319.304 715.523C319.304 767.712 423.563 810.018 552.172 810.018Z" fill="#FF6242"/>
<path d="M552.172 810.018C680.781 810.018 785.04 767.712 785.04 715.523C785.04 663.335 680.781 621.029 552.172 621.029C423.563 621.029 319.304 663.335 319.304 715.523C319.304 767.712 423.563 810.018 552.172 810.018Z" stroke="#070808" stroke-width="6" stroke-miterlimit="10"/>
<path d="M533.474 557.173L499.637 627.045C495.9 634.767 495.014 642.951 497.051 650.936C499.088 658.921 503.991 666.482 511.364 673.007C518.736 679.533 528.371 684.84 539.488 688.497C550.605 692.155 562.892 694.062 575.354 694.063V694.063C595.388 694.062 614.68 689.141 629.361 680.287C644.042 671.433 653.025 659.302 654.508 646.326L664.355 560.128L533.474 557.173Z" fill="#FFDA8F" stroke="#45413C" stroke-linecap="round" stroke-linejoin="round"/>
<path d="M499.637 627.045C499.637 627.045 568.755 644.736 611.574 629.392C654.392 614.049 667.681 586.24 667.681 586.24L651.439 560.348L522.982 556.512L499.637 627.045Z" fill="#FFBE3D"/>
<path d="M533.474 557.173L499.637 627.045C495.9 634.767 495.014 642.951 497.051 650.936C499.088 658.921 503.991 666.482 511.364 673.007C518.736 679.533 528.371 684.84 539.488 688.497C550.605 692.155 562.892 694.062 575.354 694.063V694.063C595.388 694.062 614.68 689.141 629.361 680.287C644.042 671.433 653.025 659.302 654.508 646.326L664.355 560.128L533.474 557.173Z" stroke="#070808" stroke-width="6" stroke-miterlimit="10"/>
<path d="M589.567 460.026C589.567 439.531 577.031 419.875 554.717 405.383C532.403 390.891 502.139 382.749 470.583 382.749C439.026 382.749 408.762 390.891 386.449 405.383C364.135 419.875 351.599 439.531 351.599 460.026C363.818 469.694 355.157 481.469 361.528 490.936C353.628 502.696 350.36 515.549 352.02 528.334C353.68 541.119 360.215 553.435 371.037 564.17C381.858 574.904 396.624 583.72 414.004 589.821C431.383 595.923 450.827 599.117 470.583 599.117C490.339 599.117 509.783 595.923 527.162 589.821C544.541 583.72 559.308 574.904 570.129 564.17C580.95 553.435 587.486 541.119 589.146 528.334C590.806 515.549 587.538 502.696 579.637 490.936C586.2 481.189 589.581 470.664 589.567 460.026Z" fill="#724F3D"/>
<path d="M500.349 559.313C434.636 559.313 387.403 544.051 388.673 501.375C390.185 450.365 455.889 461.353 455.889 450.36C455.889 432.468 445.618 392.777 448.718 362.083C390.144 363.003 333.024 375.242 319.513 405.96C311.339 424.539 337.25 449.541 356.67 463.014C361.8 475.511 333.441 476.075 361.528 490.929C349.924 508.184 348.421 527.597 357.301 545.522C366.18 563.446 384.832 578.647 409.751 588.27C434.671 597.893 464.143 601.275 492.63 597.78C521.118 594.286 546.661 584.156 564.46 569.293C547.58 575.264 520.922 559.313 500.349 559.313Z" fill="#A86C4D"/>
<path d="M589.567 460.026C589.567 417.347 532.845 397.858 480.542 372.022C417.946 341.096 246.928 386.163 351.599 460.026C380.336 480.304 318.138 467.4 361.528 490.936C353.628 502.696 350.36 515.549 352.02 528.334C353.68 541.119 360.215 553.435 371.037 564.17C381.858 574.904 396.624 583.72 414.003 589.821C431.382 595.922 450.827 599.117 470.583 599.117C490.338 599.117 509.783 595.922 527.162 589.821C544.541 583.72 559.308 574.904 570.129 564.17C580.95 553.435 587.486 541.119 589.146 528.334C590.806 515.549 587.538 502.696 579.637 490.936C586.2 481.189 589.581 470.664 589.567 460.026Z" stroke="#070808" stroke-width="6" stroke-miterlimit="10"/>
<path d="M453.146 400.693H749.172V507.869C749.172 533.364 733.578 557.815 705.82 575.843C678.062 593.871 640.415 603.999 601.159 603.999V603.999C561.904 603.999 524.256 593.871 496.498 575.843C468.741 557.815 453.146 533.364 453.146 507.869V400.693Z" fill="#FFDA8F" stroke="#45413C" stroke-linecap="round" stroke-linejoin="round"/>
<path d="M478.699 447.836C478.699 447.836 517.223 458.879 588.319 453.568C654.611 448.616 709.216 430.079 709.216 430.079C709.216 430.079 747.249 445.308 747.249 454.156C763.79 450.365 771.574 397.914 771.574 397.914L712.222 390.964C712.222 390.964 480.641 422.56 478.699 447.836Z" fill="#FFBE3D"/>
<path d="M621.149 584.407C498.705 593.245 457.729 513.5 457.729 513.5C456.31 514.776 455.04 516.064 453.863 517.36C457.492 541.095 474.577 563.107 501.798 579.119C529.019 595.13 564.432 603.998 601.158 603.999V603.999C628.589 604.003 655.482 599.055 678.835 589.709C702.188 580.362 721.083 566.985 733.409 551.069L737.023 537.641C737.023 537.641 727.798 576.711 621.149 584.407Z" fill="#FFBE3D"/>
<path d="M453.146 400.693H749.172V507.869C749.172 533.364 733.578 557.815 705.82 575.843C678.062 593.871 640.415 603.999 601.159 603.999V603.999C561.904 603.999 524.256 593.871 496.498 575.843C468.741 557.815 453.146 533.364 453.146 507.869V400.693Z" stroke="#070808" stroke-width="6" stroke-miterlimit="10"/>
<path d="M696.941 350.753C696.941 350.753 673.052 380.191 700.384 407.391C709.496 416.456 744.455 417.568 748.154 440.14C752.616 467.359 828.008 386.791 753.463 354.387C739.338 348.248 701.641 320.996 696.941 350.753Z" fill="#EFDD5C"/>
<path d="M696.941 350.753C696.941 350.753 673.052 380.191 700.384 407.391C709.496 416.456 744.455 417.568 748.154 440.14C752.616 467.359 828.008 386.791 753.463 354.387C739.338 348.248 701.641 320.996 696.941 350.753Z" fill="#724F3D"/>
<path d="M696.941 350.753C696.941 350.753 673.052 380.191 700.384 407.391C709.496 416.456 744.455 417.568 748.154 440.14C752.616 467.359 824.973 389.418 753.463 354.387C739.894 347.741 701.641 320.996 696.941 350.753Z" stroke="#070808" stroke-width="6" stroke-linecap="round" stroke-linejoin="round"/>
<path d="M455.889 450.365C546.996 449.348 641.283 438.997 719.624 401.357C742.56 390.338 755.318 358.747 731.008 340.071C634.678 266.063 486.037 322.435 455.93 354.001C424.81 386.63 413.078 419.912 455.889 450.365Z" fill="#A86C4D"/>
<path d="M738.226 347.343C735.44 359.292 726.375 370.348 714.618 375.997C645.185 409.356 563.229 421.278 482.062 424.269C470.599 424.744 459.206 422.813 449.562 418.761C439.918 414.71 432.534 408.752 428.501 401.768C428.455 401.688 428.412 401.609 428.368 401.529C413.097 412.549 414.345 436.021 455.886 450.365C546.993 449.348 641.28 438.997 719.621 401.357C739.791 391.668 752.078 366.077 738.226 347.343Z" fill="#724F3D"/>
<path d="M453.122 449.242C460.033 453.635 649.337 444.206 719.624 401.357C740.426 388.677 755.318 358.747 731.008 340.071C634.679 266.063 486.037 322.435 455.93 354.001C446.06 364.349 436.472 375.816 430.528 387.652" stroke="#070808" stroke-width="6" stroke-linecap="round" stroke-linejoin="round"/>
<path d="M728.649 461.842C728.649 461.842 716.091 451.047 693.988 451.592" stroke="#070808" stroke-width="6" stroke-miterlimit="10" stroke-linecap="round"/>
<path d="M708.689 484.715C713.047 484.526 716.165 480.324 715.653 475.329C715.141 470.333 711.193 466.437 706.835 466.625C702.476 466.813 699.358 471.016 699.87 476.011C700.382 481.006 704.33 484.903 708.689 484.715Z" fill="#070808"/>
<path d="M652.111 473.952L681.41 504.205L649.833 509.332" stroke="#070808" stroke-width="6" stroke-linecap="round" stroke-linejoin="round"/>
<path d="M553.202 473.029C553.202 473.029 565.172 461.956 587.29 461.999" stroke="#070808" stroke-width="6" stroke-miterlimit="10" stroke-linecap="round"/>
<path d="M586.594 493.931C590.875 493.368 593.106 488.934 591.576 484.027C590.046 479.12 585.335 475.599 581.054 476.162C576.772 476.725 574.542 481.159 576.072 486.066C577.602 490.973 582.313 494.494 586.594 493.931Z" fill="#070808"/>
<path d="M612.534 546.128C612.534 546.128 642.544 519.833 685.226 534.65" stroke="#070808" stroke-width="6" stroke-linecap="round" stroke-linejoin="round"/>
<path d="M696.941 350.753C696.941 350.753 686.77 385.732 605.628 388.554" stroke="#070808" stroke-width="6" stroke-linecap="round" stroke-linejoin="round"/>
<path d="M475.03 502.477C436.208 512.358 406.101 487.809 406.829 476.922C411.551 406.393 478.453 453.149 478.453 453.149" fill="#FFDA8F"/>
<path d="M475.03 502.477C436.208 512.358 406.101 487.809 406.829 476.922C411.551 406.393 478.453 453.149 478.453 453.149" stroke="#45413C" stroke-linecap="round" stroke-linejoin="round"/>
<path d="M475.03 502.477C426.735 517.938 394.764 474.882 404.927 457.981C430.807 414.962 478.453 453.149 478.453 453.149" stroke="#070808" stroke-width="6" stroke-miterlimit="10" stroke-linecap="round"/>
<path d="M1245.26 171.044H963.372C926.708 171.044 896.986 190.347 896.986 214.159V335.808C896.986 359.62 926.708 378.923 963.372 378.923H1245.26C1281.93 378.923 1311.65 359.62 1311.65 335.808V214.159C1311.65 190.347 1281.93 171.044 1245.26 171.044Z" fill="#CFD5EC"/>
<path d="M1266.44 154.863H984.547C947.883 154.863 918.161 174.167 918.161 197.979V319.627C918.161 343.439 947.883 362.743 984.547 362.743H1266.44C1303.1 362.743 1332.82 343.439 1332.82 319.627V197.979C1332.82 174.167 1303.1 154.863 1266.44 154.863Z" fill="#73E1FF"/>
<path d="M1266.44 154.863H984.547C947.883 154.863 918.161 174.167 918.161 197.979V319.627C918.161 343.439 947.883 362.743 984.547 362.743H1266.44C1303.1 362.743 1332.82 343.439 1332.82 319.627V197.979C1332.82 174.167 1303.1 154.863 1266.44 154.863Z" stroke="#070808" stroke-width="6" stroke-miterlimit="10"/>
<path d="M933.583 433.721C953.164 433.721 969.038 423.411 969.038 410.694C969.038 397.977 953.164 387.667 933.583 387.667C914.002 387.667 898.128 397.977 898.128 410.694C898.128 423.411 914.002 433.721 933.583 433.721Z" stroke="#070808" stroke-width="6" stroke-miterlimit="10"/>
<path d="M871.296 467.447C883.397 467.447 893.207 461.076 893.207 453.217C893.207 445.357 883.397 438.986 871.296 438.986C859.195 438.986 849.386 445.357 849.386 453.217C849.386 461.076 859.195 467.447 871.296 467.447Z" stroke="#070808" stroke-width="6" stroke-miterlimit="10"/>
<path d="M1239.1 277.959H1001.74C992.296 277.959 984.64 282.931 984.64 289.064V316.108C984.64 322.241 992.296 327.213 1001.74 327.213H1239.1C1248.54 327.213 1256.2 322.241 1256.2 316.108V289.064C1256.2 282.931 1248.54 277.959 1239.1 277.959Z" fill="white"/>
<path d="M1019.39 316.323C1014.86 316.323 1010.51 315.152 1007.3 313.069C1004.09 310.987 1002.29 308.162 1002.29 305.216V278.174C1002.29 278.101 1002.31 278.031 1002.31 277.959H1001.74C997.206 277.959 992.857 279.129 989.65 281.212C986.443 283.294 984.642 286.119 984.642 289.064V316.106C984.642 319.051 986.443 321.876 989.65 323.959C992.857 326.041 997.206 327.211 1001.74 327.211H1239.1C1243.57 327.212 1247.87 326.071 1251.07 324.035C1254.26 321.998 1256.1 319.229 1256.18 316.322L1019.39 316.323Z" fill="#E4E4E4"/>
<path d="M1239.1 277.959H1001.74C992.296 277.959 984.64 282.931 984.64 289.064V316.108C984.64 322.241 992.296 327.213 1001.74 327.213H1239.1C1248.54 327.213 1256.2 322.241 1256.2 316.108V289.064C1256.2 282.931 1248.54 277.959 1239.1 277.959Z" stroke="#070808" stroke-width="6" stroke-miterlimit="10"/>
<path d="M1040.2 309.278C1047.17 309.278 1052.82 305.606 1052.82 301.076C1052.82 296.547 1047.17 292.875 1040.2 292.875C1033.22 292.875 1027.57 296.547 1027.57 301.076C1027.57 305.606 1033.22 309.278 1040.2 309.278Z" fill="#070808"/>
<path d="M1080.96 309.278C1087.94 309.278 1093.59 305.606 1093.59 301.076C1093.59 296.547 1087.94 292.875 1080.96 292.875C1073.99 292.875 1068.34 296.547 1068.34 301.076C1068.34 305.606 1073.99 309.278 1080.96 309.278Z" fill="#070808"/>
<path d="M1121.73 309.278C1128.71 309.278 1134.36 305.606 1134.36 301.076C1134.36 296.547 1128.71 292.875 1121.73 292.875C1114.76 292.875 1109.1 296.547 1109.1 301.076C1109.1 305.606 1114.76 309.278 1121.73 309.278Z" fill="#070808"/>
<path d="M1162.5 309.278C1169.48 309.278 1175.13 305.606 1175.13 301.076C1175.13 296.547 1169.48 292.875 1162.5 292.875C1155.53 292.875 1149.87 296.547 1149.87 301.076C1149.87 305.606 1155.53 309.278 1162.5 309.278Z" fill="#070808"/>
<path d="M1203.27 309.278C1210.25 309.278 1215.9 305.606 1215.9 301.076C1215.9 296.547 1210.25 292.875 1203.27 292.875C1196.3 292.875 1190.64 296.547 1190.64 301.076C1190.64 305.606 1196.3 309.278 1203.27 309.278Z" fill="#070808"/>
<path d="M1094.66 494.339C1094.69 492.006 1095.79 489.733 1097.83 487.814C1099.7 485.919 1102.03 484.229 1104.71 482.806C1107.25 481.49 1109.56 479.991 1111.59 478.339C1113.53 476.92 1114.65 475.108 1114.76 473.212C1114.83 472.415 1114.6 471.619 1114.1 470.89C1113.61 470.16 1112.85 469.519 1111.89 469.017C1109.55 467.951 1106.73 467.432 1103.88 467.544C1097.18 467.544 1092.44 469.848 1089.64 474.456L1075.53 469.174C1077.75 465.481 1081.76 462.358 1086.95 460.28C1092.22 458.176 1098.29 457.086 1104.48 457.138C1111.29 457.042 1117.95 458.483 1123.31 461.215C1125.92 462.54 1128 464.25 1129.38 466.202C1130.76 468.154 1131.41 470.292 1131.27 472.439C1131.29 474.536 1130.58 476.609 1129.17 478.498C1127.89 480.252 1126.2 481.865 1124.15 483.277C1122.19 484.596 1120.24 485.84 1118.29 487.008C1116.43 488.101 1114.75 489.311 1113.26 490.62C1111.97 491.685 1111.23 492.994 1111.17 494.352L1094.66 494.339ZM1110.08 511.661C1108.42 512.73 1106.24 513.393 1103.92 513.536C1101.59 513.68 1099.26 513.295 1097.32 512.448C1095.38 511.601 1093.95 510.344 1093.28 508.891C1092.61 507.437 1092.73 505.877 1093.63 504.476C1094.53 503.075 1096.15 501.92 1098.21 501.207C1100.27 500.493 1102.65 500.266 1104.94 500.563C1107.24 500.861 1109.3 501.665 1110.78 502.839C1112.26 504.012 1113.07 505.483 1113.07 507.001C1113.09 507.869 1112.83 508.73 1112.32 509.532C1111.81 510.333 1111.05 511.058 1110.09 511.662L1110.08 511.661Z" fill="#EA7AAF"/>
<path d="M725.76 221.986C725.791 219.143 727.138 216.372 729.625 214.032C731.904 211.721 734.733 209.661 738.006 207.926C741.106 206.322 743.918 204.495 746.388 202.482C748.75 200.752 750.115 198.543 750.25 196.233C750.332 195.262 750.057 194.292 749.449 193.403C748.841 192.515 747.917 191.732 746.753 191.121C743.904 189.82 740.461 189.186 736.985 189.322C728.82 189.322 723.038 192.131 719.638 197.748L702.436 191.31C705.135 186.808 710.024 183.002 716.359 180.469C722.775 177.905 730.181 176.577 737.714 176.639C746.022 176.523 754.135 178.279 760.674 181.61C767.134 184.923 770.364 189.482 770.364 195.287C770.396 197.843 769.523 200.37 767.813 202.672C766.254 204.809 764.189 206.774 761.691 208.494C759.308 210.104 756.928 211.619 754.549 213.039C752.288 214.371 750.236 215.846 748.425 217.441C746.844 218.738 745.95 220.332 745.876 221.986H725.76ZM744.565 243.099C742.543 244.401 739.889 245.207 737.055 245.381C734.221 245.555 731.381 245.087 729.019 244.054C726.658 243.022 724.919 241.49 724.1 239.719C723.281 237.949 723.432 236.048 724.528 234.342C725.623 232.635 727.594 231.227 730.107 230.358C732.62 229.489 735.519 229.213 738.311 229.575C741.102 229.938 743.614 230.918 745.419 232.348C747.224 233.777 748.21 235.569 748.21 237.418C748.231 238.476 747.919 239.526 747.292 240.503C746.665 241.48 745.737 242.364 744.565 243.099V243.099Z" fill="#EA7AAF"/>
<path d="M1085.11 204.318V200.767L1097.68 180.909H1100.47V186.136H1098.7L1089.71 200.369V200.597H1106.94V204.318H1085.11ZM1098.9 210V203.239L1098.93 201.619V180.909H1103.09V210H1098.9ZM1122.02 210.483C1119.77 210.473 1117.85 209.882 1116.26 208.707C1114.67 207.533 1113.46 205.824 1112.61 203.58C1111.77 201.335 1111.35 198.632 1111.35 195.469C1111.35 192.315 1111.77 189.621 1112.61 187.386C1113.46 185.152 1114.69 183.447 1116.28 182.273C1117.88 181.098 1119.79 180.511 1122.02 180.511C1124.24 180.511 1126.15 181.103 1127.74 182.287C1129.33 183.461 1130.55 185.166 1131.39 187.401C1132.24 189.626 1132.67 192.315 1132.67 195.469C1132.67 198.641 1132.25 201.349 1131.41 203.594C1130.56 205.829 1129.35 207.538 1127.75 208.722C1126.16 209.896 1124.25 210.483 1122.02 210.483ZM1122.02 206.69C1123.99 206.69 1125.52 205.729 1126.63 203.807C1127.75 201.884 1128.31 199.105 1128.31 195.469C1128.31 193.054 1128.05 191.013 1127.54 189.347C1127.04 187.67 1126.32 186.402 1125.37 185.54C1124.43 184.669 1123.31 184.233 1122.02 184.233C1120.06 184.233 1118.52 185.199 1117.4 187.131C1116.28 189.062 1115.72 191.842 1115.71 195.469C1115.71 197.893 1115.96 199.943 1116.46 201.619C1116.97 203.286 1117.7 204.55 1118.64 205.412C1119.57 206.264 1120.7 206.69 1122.02 206.69ZM1137.1 204.318V200.767L1149.67 180.909H1152.47V186.136H1150.69L1141.7 200.369V200.597H1158.93V204.318H1137.1ZM1150.89 210V203.239L1150.92 201.619V180.909H1155.08V210H1150.89ZM979.63 258V228.909H989.999C992.262 228.909 994.137 229.321 995.624 230.145C997.111 230.969 998.223 232.096 998.962 233.526C999.701 234.946 1000.07 236.546 1000.07 238.327C1000.07 240.116 999.696 241.726 998.948 243.156C998.209 244.577 997.092 245.704 995.596 246.537C994.109 247.361 992.239 247.773 989.985 247.773H982.854V244.051H989.587C991.017 244.051 992.177 243.805 993.067 243.312C993.957 242.811 994.611 242.129 995.027 241.267C995.444 240.405 995.652 239.425 995.652 238.327C995.652 237.228 995.444 236.253 995.027 235.401C994.611 234.548 993.953 233.881 993.053 233.398C992.163 232.915 990.989 232.673 989.53 232.673H984.019V258H979.63ZM1011.03 258.483C1009.65 258.483 1008.4 258.227 1007.28 257.716C1006.16 257.195 1005.28 256.442 1004.62 255.457C1003.98 254.473 1003.66 253.265 1003.66 251.835C1003.66 250.604 1003.89 249.591 1004.37 248.795C1004.84 248 1005.48 247.37 1006.28 246.906C1007.09 246.442 1007.99 246.092 1008.98 245.855C1009.98 245.618 1010.99 245.438 1012.02 245.315C1013.33 245.164 1014.39 245.041 1015.2 244.946C1016.02 244.842 1016.61 244.676 1016.98 244.449C1017.35 244.222 1017.53 243.852 1017.53 243.341V243.241C1017.53 242.001 1017.18 241.04 1016.48 240.358C1015.79 239.676 1014.76 239.335 1013.39 239.335C1011.96 239.335 1010.83 239.652 1010.01 240.287C1009.19 240.912 1008.63 241.608 1008.32 242.375L1004.32 241.466C1004.8 240.14 1005.49 239.07 1006.4 238.256C1007.32 237.432 1008.37 236.835 1009.57 236.466C1010.76 236.087 1012.01 235.898 1013.33 235.898C1014.2 235.898 1015.12 236.002 1016.1 236.21C1017.08 236.409 1018 236.778 1018.86 237.318C1019.72 237.858 1020.42 238.63 1020.97 239.634C1021.52 240.628 1021.8 241.92 1021.8 243.511V258H1017.65V255.017H1017.48C1017.2 255.566 1016.79 256.106 1016.24 256.636C1015.69 257.167 1014.99 257.607 1014.13 257.957C1013.26 258.308 1012.23 258.483 1011.03 258.483ZM1011.95 255.074C1013.13 255.074 1014.13 254.842 1014.96 254.378C1015.81 253.914 1016.45 253.308 1016.88 252.56C1017.33 251.802 1017.55 250.992 1017.55 250.131V247.318C1017.4 247.47 1017.1 247.612 1016.67 247.744C1016.24 247.867 1015.75 247.976 1015.2 248.071C1014.66 248.156 1014.12 248.237 1013.6 248.312C1013.08 248.379 1012.64 248.436 1012.29 248.483C1011.47 248.587 1010.72 248.762 1010.03 249.009C1009.36 249.255 1008.82 249.61 1008.42 250.074C1008.02 250.528 1007.82 251.134 1007.82 251.892C1007.82 252.943 1008.21 253.739 1008.98 254.278C1009.76 254.809 1010.75 255.074 1011.95 255.074ZM1036.6 266.636C1034.87 266.636 1033.38 266.409 1032.13 265.955C1030.89 265.5 1029.87 264.899 1029.09 264.151C1028.3 263.402 1027.71 262.583 1027.32 261.693L1030.98 260.188C1031.23 260.604 1031.57 261.045 1032 261.509C1032.43 261.982 1033.02 262.384 1033.76 262.716C1034.51 263.047 1035.47 263.213 1036.64 263.213C1038.25 263.213 1039.58 262.82 1040.63 262.034C1041.69 261.258 1042.21 260.017 1042.21 258.312V254.023H1041.94C1041.69 254.487 1041.32 255.003 1040.83 255.571C1040.36 256.139 1039.71 256.632 1038.87 257.048C1038.04 257.465 1036.96 257.673 1035.62 257.673C1033.9 257.673 1032.34 257.271 1030.96 256.466C1029.59 255.652 1028.5 254.454 1027.69 252.872C1026.9 251.281 1026.5 249.326 1026.5 247.006C1026.5 244.686 1026.89 242.697 1027.68 241.04C1028.48 239.383 1029.56 238.114 1030.95 237.233C1032.33 236.343 1033.9 235.898 1035.65 235.898C1037 235.898 1038.1 236.125 1038.93 236.58C1039.76 237.025 1040.41 237.545 1040.88 238.142C1041.35 238.739 1041.71 239.264 1041.97 239.719H1042.28V236.182H1046.44V258.483C1046.44 260.358 1046.01 261.897 1045.14 263.099C1044.27 264.302 1043.09 265.192 1041.6 265.77C1040.12 266.348 1038.46 266.636 1036.6 266.636ZM1036.56 254.151C1037.78 254.151 1038.81 253.866 1039.65 253.298C1040.51 252.721 1041.15 251.897 1041.59 250.827C1042.03 249.747 1042.25 248.455 1042.25 246.949C1042.25 245.481 1042.04 244.188 1041.6 243.071C1041.16 241.954 1040.53 241.082 1039.68 240.457C1038.84 239.823 1037.8 239.506 1036.56 239.506C1035.28 239.506 1034.21 239.837 1033.36 240.5C1032.51 241.153 1031.87 242.044 1031.43 243.17C1031 244.297 1030.79 245.557 1030.79 246.949C1030.79 248.379 1031.01 249.634 1031.44 250.713C1031.88 251.793 1032.52 252.635 1033.38 253.241C1034.24 253.848 1035.3 254.151 1036.56 254.151ZM1061.54 258.44C1059.39 258.44 1057.54 257.981 1055.99 257.062C1054.45 256.134 1053.25 254.832 1052.41 253.156C1051.58 251.471 1051.16 249.496 1051.16 247.233C1051.16 244.998 1051.58 243.028 1052.41 241.324C1053.25 239.619 1054.43 238.289 1055.93 237.332C1057.45 236.376 1059.22 235.898 1061.25 235.898C1062.48 235.898 1063.67 236.101 1064.82 236.509C1065.98 236.916 1067.02 237.555 1067.94 238.426C1068.85 239.297 1069.58 240.429 1070.11 241.821C1070.64 243.204 1070.9 244.884 1070.9 246.864V248.369H1053.56V245.188H1066.74C1066.74 244.07 1066.52 243.08 1066.06 242.219C1065.61 241.348 1064.97 240.661 1064.14 240.159C1063.33 239.657 1062.37 239.406 1061.27 239.406C1060.08 239.406 1059.04 239.7 1058.15 240.287C1057.27 240.865 1056.59 241.622 1056.1 242.56C1055.63 243.488 1055.39 244.496 1055.39 245.585V248.071C1055.39 249.529 1055.65 250.77 1056.16 251.793C1056.68 252.815 1057.41 253.597 1058.33 254.136C1059.26 254.667 1060.35 254.932 1061.59 254.932C1062.39 254.932 1063.13 254.818 1063.79 254.591C1064.45 254.354 1065.02 254.004 1065.51 253.54C1065.99 253.076 1066.36 252.503 1066.61 251.821L1070.63 252.545C1070.31 253.729 1069.73 254.766 1068.9 255.656C1068.08 256.537 1067.04 257.223 1065.79 257.716C1064.55 258.199 1063.13 258.44 1061.54 258.44ZM1090.45 245.045V258H1086.2V236.182H1090.28V239.733H1090.55C1091.05 238.578 1091.84 237.65 1092.91 236.949C1093.99 236.248 1095.35 235.898 1096.98 235.898C1098.47 235.898 1099.77 236.21 1100.89 236.835C1102.01 237.451 1102.87 238.369 1103.49 239.591C1104.11 240.812 1104.41 242.323 1104.41 244.122V258H1100.17V244.634C1100.17 243.052 1099.75 241.816 1098.93 240.926C1098.11 240.027 1096.97 239.577 1095.54 239.577C1094.55 239.577 1093.67 239.79 1092.91 240.216C1092.15 240.642 1091.55 241.267 1091.1 242.091C1090.67 242.905 1090.45 243.89 1090.45 245.045ZM1119.3 258.44C1117.25 258.44 1115.47 257.972 1113.94 257.034C1112.42 256.097 1111.24 254.785 1110.39 253.099C1109.55 251.414 1109.13 249.444 1109.13 247.19C1109.13 244.927 1109.55 242.948 1110.39 241.253C1111.24 239.558 1112.42 238.241 1113.94 237.304C1115.47 236.366 1117.25 235.898 1119.3 235.898C1121.34 235.898 1123.13 236.366 1124.65 237.304C1126.18 238.241 1127.36 239.558 1128.21 241.253C1129.05 242.948 1129.47 244.927 1129.47 247.19C1129.47 249.444 1129.05 251.414 1128.21 253.099C1127.36 254.785 1126.18 256.097 1124.65 257.034C1123.13 257.972 1121.34 258.44 1119.3 258.44ZM1119.31 254.875C1120.64 254.875 1121.74 254.525 1122.61 253.824C1123.48 253.123 1124.12 252.19 1124.54 251.026C1124.97 249.861 1125.18 248.578 1125.18 247.176C1125.18 245.784 1124.97 244.506 1124.54 243.341C1124.12 242.167 1123.48 241.224 1122.61 240.514C1121.74 239.804 1120.64 239.449 1119.31 239.449C1117.98 239.449 1116.87 239.804 1115.99 240.514C1115.12 241.224 1114.47 242.167 1114.04 243.341C1113.63 244.506 1113.42 245.784 1113.42 247.176C1113.42 248.578 1113.63 249.861 1114.04 251.026C1114.47 252.19 1115.12 253.123 1115.99 253.824C1116.87 254.525 1117.98 254.875 1119.31 254.875ZM1144.4 236.182V239.591H1132.48V236.182H1144.4ZM1135.67 230.955H1139.92V251.594C1139.92 252.418 1140.04 253.038 1140.29 253.455C1140.54 253.862 1140.85 254.141 1141.24 254.293C1141.64 254.435 1142.07 254.506 1142.53 254.506C1142.88 254.506 1143.17 254.482 1143.43 254.435C1143.69 254.387 1143.88 254.349 1144.03 254.321L1144.79 257.83C1144.55 257.924 1144.2 258.019 1143.74 258.114C1143.29 258.218 1142.72 258.275 1142.04 258.284C1140.92 258.303 1139.88 258.104 1138.91 257.688C1137.95 257.271 1137.17 256.627 1136.57 255.756C1135.97 254.884 1135.67 253.791 1135.67 252.474V230.955ZM1170.06 236.182V239.591H1157.73V236.182H1170.06ZM1161.11 258V233.653C1161.11 232.29 1161.41 231.158 1162.01 230.259C1162.61 229.349 1163.4 228.672 1164.38 228.227C1165.37 227.773 1166.44 227.545 1167.59 227.545C1168.44 227.545 1169.17 227.616 1169.78 227.759C1170.38 227.891 1170.83 228.014 1171.13 228.128L1170.13 231.565C1169.94 231.509 1169.68 231.442 1169.37 231.366C1169.05 231.281 1168.68 231.239 1168.23 231.239C1167.2 231.239 1166.46 231.494 1166.01 232.006C1165.58 232.517 1165.36 233.256 1165.36 234.222V258H1161.11ZM1182.78 258.44C1180.73 258.44 1178.95 257.972 1177.42 257.034C1175.9 256.097 1174.71 254.785 1173.87 253.099C1173.03 251.414 1172.61 249.444 1172.61 247.19C1172.61 244.927 1173.03 242.948 1173.87 241.253C1174.71 239.558 1175.9 238.241 1177.42 237.304C1178.95 236.366 1180.73 235.898 1182.78 235.898C1184.82 235.898 1186.61 236.366 1188.13 237.304C1189.66 238.241 1190.84 239.558 1191.68 241.253C1192.52 242.948 1192.95 244.927 1192.95 247.19C1192.95 249.444 1192.52 251.414 1191.68 253.099C1190.84 254.785 1189.66 256.097 1188.13 257.034C1186.61 257.972 1184.82 258.44 1182.78 258.44ZM1182.79 254.875C1184.12 254.875 1185.21 254.525 1186.09 253.824C1186.96 253.123 1187.6 252.19 1188.02 251.026C1188.44 249.861 1188.66 248.578 1188.66 247.176C1188.66 245.784 1188.44 244.506 1188.02 243.341C1187.6 242.167 1186.96 241.224 1186.09 240.514C1185.21 239.804 1184.12 239.449 1182.79 239.449C1181.45 239.449 1180.35 239.804 1179.47 240.514C1178.6 241.224 1177.95 242.167 1177.52 243.341C1177.1 244.506 1176.9 245.784 1176.9 247.176C1176.9 248.578 1177.1 249.861 1177.52 251.026C1177.95 252.19 1178.6 253.123 1179.47 253.824C1180.35 254.525 1181.45 254.875 1182.79 254.875ZM1211.51 248.952V236.182H1215.77V258H1211.59V254.222H1211.37C1210.86 255.386 1210.06 256.357 1208.95 257.134C1207.85 257.901 1206.48 258.284 1204.85 258.284C1203.44 258.284 1202.2 257.976 1201.12 257.361C1200.05 256.736 1199.21 255.812 1198.6 254.591C1197.99 253.369 1197.69 251.859 1197.69 250.06V236.182H1201.93V249.548C1201.93 251.035 1202.35 252.219 1203.17 253.099C1203.99 253.98 1205.06 254.42 1206.38 254.42C1207.18 254.42 1207.97 254.222 1208.75 253.824C1209.55 253.426 1210.21 252.825 1210.73 252.02C1211.26 251.215 1211.52 250.192 1211.51 248.952ZM1225.72 245.045V258H1221.48V236.182H1225.55V239.733H1225.82C1226.32 238.578 1227.11 237.65 1228.18 236.949C1229.26 236.248 1230.62 235.898 1232.26 235.898C1233.74 235.898 1235.05 236.21 1236.16 236.835C1237.28 237.451 1238.15 238.369 1238.76 239.591C1239.38 240.812 1239.69 242.323 1239.69 244.122V258H1235.44V244.634C1235.44 243.052 1235.03 241.816 1234.2 240.926C1233.38 240.027 1232.25 239.577 1230.81 239.577C1229.82 239.577 1228.95 239.79 1228.18 240.216C1227.42 240.642 1226.82 241.267 1226.38 242.091C1225.94 242.905 1225.72 243.89 1225.72 245.045ZM1253.55 258.426C1251.79 258.426 1250.22 257.976 1248.83 257.077C1247.46 256.168 1246.38 254.875 1245.6 253.199C1244.82 251.513 1244.43 249.491 1244.43 247.134C1244.43 244.776 1244.82 242.759 1245.61 241.082C1246.41 239.406 1247.49 238.123 1248.88 237.233C1250.26 236.343 1251.83 235.898 1253.58 235.898C1254.93 235.898 1256.02 236.125 1256.85 236.58C1257.68 237.025 1258.32 237.545 1258.78 238.142C1259.24 238.739 1259.6 239.264 1259.86 239.719H1260.11V228.909H1264.36V258H1260.21V254.605H1259.86C1259.6 255.069 1259.23 255.599 1258.75 256.196C1258.28 256.793 1257.62 257.313 1256.79 257.759C1255.96 258.204 1254.88 258.426 1253.55 258.426ZM1254.49 254.804C1255.71 254.804 1256.74 254.482 1257.58 253.838C1258.44 253.185 1259.08 252.28 1259.52 251.125C1259.96 249.97 1260.18 248.625 1260.18 247.091C1260.18 245.576 1259.97 244.25 1259.53 243.114C1259.09 241.977 1258.46 241.092 1257.61 240.457C1256.77 239.823 1255.73 239.506 1254.49 239.506C1253.21 239.506 1252.14 239.837 1251.29 240.5C1250.44 241.163 1249.8 242.067 1249.36 243.213C1248.93 244.359 1248.72 245.652 1248.72 247.091C1248.72 248.549 1248.94 249.861 1249.37 251.026C1249.81 252.19 1250.45 253.114 1251.31 253.795C1252.17 254.468 1253.23 254.804 1254.49 254.804Z" fill="black"/>
</svg>
